-40 -48 -56 -80 -96 632
-80 904
992
208 -216 -16 528
-40 -40 -40 -40 800
80 -96 104 -40 8 -72 544
-80 -72 -104 -96 -104 -96 -96 -96 -8 -8 -8 -8 120
-8 -16 -48 -64 -80 -88 -120 512
992
16 -24 -40 144 -104 104 -8 -8 -8 -8 448
80 -96 128 -136 152 -24 328
16 -32 360 -120 -136 288
-24 960
80 -240 -320 328
720 -32 -40 -56 112
992
-320 184 -40 -272 144
-296 -80 120 -16 -48 392
-80 632 -80 176
-48 -56 16 -48 80 -96 600
192 -8 -8 760
